{
  "cocoBase": "lite_mobilenet_v2",
  "host": "localhost",
  "hostPort": 8082,
  "key": "change_this_to_something_very_random____make_sure_to_match__/plugins/opencv/conf.json",
  "mode": "client",
  "mqtt": {
    "cafile": "/mosquitto/certs/CA.crt",
    "host": "mqtt",
    "rejectUnauthorised": "false"
  },
  "objectDetection": {
    "minConfidence": 0.70,
    "objectClasses": "person",
    "timeoutPeriod": 5000
  },
  "plug": "TensorFlow-WithFiltering-And-MQTT",
  "port": 8080,
  "tfjsBuild": "cpu",
  "type": "detector"
}